Item 45       ,Very Good     ,Note 45       ,Asset 45      ,2             211          140
Item 46       ,Good          ,Note 46       ,Asset 46      ,6             102          132
Item 47       ,Fair          ,Note 47       ,Asset 47      ,9             190          148
Item 48       ,Excellent     ,Note 48       ,Asset 48      ,4             83           154
Item 49       ,Poor          ,Note 49       ,Asset 49      ,10            207          142
Item 5        ,Very Good     ,Note 5        ,Asset 5       ,2             213          147
Item 50       ,Very Good     ,Note 50       ,Asset 50      ,1             44           133
Item 6        ,Good          ,Note 6        ,Asset 6       ,6             35           151
Item 7        ,Fair          ,Note 7        ,Asset 7       ,9             128          142
Item 8        ,Excellent     ,Note 8        ,Asset 8       ,4             91           127
Item 9        ,Poor          ,Note 9        ,Asset 9       ,10            195          155
